{
    "name": "PlayerInput",
    "maps": [
        {
            "name": "Moment",
            "id": "b54cf96e-33b7-4242-a007-04ab7cde85cc",
            "actions": [
                {
                    "name": "HorizontalMoment",
                    "type": "PassThrough",
                    "id": "57f7d398-89bf-4d24-898e-b652a73ce3a8",
                    "expectedControlType": "Vector2",
                    "processors": "",
                    "interactions": ""
                },
                {
                    "name": "Jump",
                    "type": "Button",
                    "id": "bfc8c4e7-8349-4e4e-8ae7-d62bb4c49618",
                    "expectedControlType": "Button",
                    "processors": "",
                    "interactions": ""
                },
                {
                    "name": "Fire",
                    "type": "Button",
                    "id": "90655643-d969-4460-a2b6-dc1e5ad3e1c8",
                    "expectedControlType": "Button",
                    "processors": "",
                    "interactions": ""
                }
            ],
            "bindings": [
                {
                    "name": "WASD",
                    "id": "5529e841-3df2-4671-bbeb-aec45b2d7333",
                    "path": "2DVector",
                    "interactions": "",
                    "processors": "",
                    "groups": "",
                    "action": "HorizontalMoment",
                    "isComposite": true,
                    "isPartOfComposite": false
                },
                {
                    "name": "up",
                    "id": "70f4d6e4-fce3-450a-acce-437875bc24bd",
                    "path": "<Keyboard>/w",
                    "interactions": "",
                    "processors": "",
                    "groups": "",
                    "action": "HorizontalMoment",
                    "isComposite": false,
                    "isPartOfComposite": true
                },
                {
                    "name": "down",
                    "id": "0d6ccee2-b3e9-493f-8891-d260d8fe066e",
                    "path": "<Keyboard>/s",
                    "interactions": "",
                    "processors": "",
                    "groups": "",
                    "action": "HorizontalMoment",
                    "isComposite": false,
                    "isPartOfComposite": true
                },
                {
                    "name": "left",
                    "id": "b8951a51-d569-4953-a55f-b181d390224f",
                    "path": "<Keyboard>/a",
                    "interactions": "",
                    "processors": "",
                    "groups": "",
                    "action": "HorizontalMoment",
                    "isComposite": false,
                    "isPartOfComposite": true
                },
                {
                    "name": "right",
                    "id": "3ce45630-9e6a-4cfc-80cc-b617e5fa906d",
                    "path": "<Keyboard>/d",
                    "interactions": "",
                    "processors": "",
                    "groups": "",
                    "action": "HorizontalMoment",
                    "isComposite": false,
                    "isPartOfComposite": true
                },
                {
                    "name": "",
                    "id": "de7306b8-9f23-439e-af3e-906cbadfd053",
                    "path": "<Keyboard>/space",
                    "interactions": "",
                    "processors": "",
                    "groups": "",
                    "action": "Jump",
                    "isComposite": false,
                    "isPartOfComposite": false
                },
                {
                    "name": "",
                    "id": "9f235d0e-ddca-4221-9459-a6bd38d916d6",
                    "path": "<Mouse>/leftButton",
                    "interactions": "",
                    "processors": "",
                    "groups": "",
                    "action": "Fire",
                    "isComposite": false,
                    "isPartOfComposite": false
                }
            ]
        }
    ],
    "controlSchemes": []
}